{
  "name": "AssetHistory",
  "fields": [
    {
      "fieldName": "updatedBy",
      "fieldType": "String"
    },
    {
      "fieldName": "updatedDate",
      "fieldType": "Instant"
    },
    {
      "fieldName": "status",
      "fieldType": "String"
    },
    {
      "fieldName": "note",
      "fieldType": "String"
    }
  ],
  "relationships": [
    {
      "relationshipType": "many-to-one",
      "otherEntityName": "empMgt",
      "otherEntityRelationshipName": "assetHistory",
      "relationshipName": "oldOwner"
    },
    {
      "relationshipType": "many-to-one",
      "otherEntityName": "asset",
      "otherEntityRelationshipName": "assetHistory",
      "relationshipName": "asset"
    }
  ],
  "entityTableName": "asset_history",
  "dto": "no",
  "pagination": "no",
  "service": "no",
  "jpaMetamodelFiltering": false,
  "fluentMethods": true,
  "readOnly": false,
  "embedded": false,
  "applications": "*",
  "changelogDate": "20210721021850"
}
