{
  "name": "DeptMgt",
  "fields": [
    {
      "fieldName": "deptCode",
      "fieldType": "String"
    },
    {
      "fieldName": "deptName",
      "fieldType": "String"
    },
    {
      "fieldName": "status",
      "fieldType": "String"
    },
    {
      "fieldName": "parentDeptCode",
      "fieldType": "String"
    }
  ],
  "relationships": [
    {
      "relationshipType": "one-to-many",
      "otherEntityName": "empMgt",
      "otherEntityRelationshipName": "dept",
      "relationshipName": "empMgt"
    }
  ],
  "entityTableName": "dept_mgt",
  "dto": "no",
  "pagination": "no",
  "service": "no",
  "jpaMetamodelFiltering": false,
  "fluentMethods": true,
  "readOnly": false,
  "embedded": false,
  "applications": "*",
  "changelogDate": "20210721021846"
}
